<?xml version="1.0" standalone="no"?>
<!DOCTYPE svg PUBLIC "-//W3C//DTD SVG 20010904//EN"
 "http://www.w3.org/TR/2001/REC-SVG-20010904/DTD/svg10.dtd">
<svg version="1.0" xmlns="http://www.w3.org/2000/svg"
 width="512.000000pt" height="512.000000pt" viewBox="0 0 512.000000 512.000000"
 preserveAspectRatio="xMidYMid meet">
<metadata>
Created by potrace 1.11, written by Peter Selinger 2001-2013
</metadata>
<g transform="translate(0.000000,512.000000) scale(0.100000,-0.100000)"
fill="#000000" stroke="none">
<path d="M3494 4905 c-270 -62 -452 -198 -561 -417 -114 -231 -140 -521 -87
-950 32 -258 36 -468 11 -570 -26 -105 -81 -204 -151 -273 -118 -114 -254
-175 -627 -280 -523 -148 -672 -205 -869 -333 -99 -64 -214 -171 -275 -257
-88 -123 -169 -317 -200 -478 -24 -128 -20 -324 9 -440 74 -290 294 -523 597
-631 193 -69 387 -96 553 -76 209 25 372 104 507 246 163 173 277 430 403 910
91 346 141 465 256 603 51 61 87 90 300 237 443 307 764 645 935 984 51 101
111 287 130 400 19 123 20 374 0 505 -44 290 -145 518 -299 670 -132 132 -240
176 -426 174 -72 0 -136 -8 -206 -24z"/>
</g>
</svg>
